
********** TestHcoords **********
|###########################################|
Hcoords Test #1 (Default Construct)
H1 = (0,0,0,0)

|###########################################|
Hcoords Test #2 (Non-Default Construct)
H1 = (1,2,0,0)
H2 = (-3,4,0,0)
H3 = (-5,-6,0,0)
H4 = (7,-8,0,0)

|###########################################|
PART1 Hcoords Test #3 (Hcoords + Hcoords) PART1

H1 = (50,100,0,0)
H2 = (25,25,0,0)

H3 = H1(50,100,0,0) + H2(25,25,0,0)
H3 = (75,125,0,0)

PART2 Hcoords Test #3 (Hcoords + Hcoords) PART2

H3 = (75,125,0,0)
H4 = (-25,-25,0,0)

H5 = H3(75,125,0,0) + H4(-25,-25,0,0)
H5 = (50,100,0,0)

|###########################################|
PART1 Hcoords Test #4 (Hcoords - Hcoords) PART1

H1 = (50,100,0,0)
H2 = (25,25,0,0)

H3 = H1(50,100,0,0) - H2(25,25,0,0)
H3 = (25,75,0,0)

PART2 Hcoords Test #4 (Hcoords - Hcoords) PART2

H3 = (25,75,0,0)
H4 = (-25,-25,0,0)

H5 = H3(25,75,0,0) - H4(-25,-25,0,0)
H5 = (50,100,0,0)

|###########################################|
PART1 Hcoords Test #5 (Hcoords * float) PART1

H1 = (1,1,0,0)
r = 2

H2 = H1(1,1,0,0) * 2.000000
H2 = (2.000000,2.000000,0.000000,0.000000)

PART2 Hcoords Test #5 (Hcoords * float) PART2

H1 = (5.000000,2.000000,0.000000,0.000000)
r = 3.140000

H2 = H1(5.000000,2.000000,0.000000,0.000000) * 3.140000
H2 = (15.700001,6.280000,0.000000,0.000000)

|###########################################|
PART1 Hcoords Test #6 (Hcoord Negated) PART1

H1 = (1.000000,1.000000,0.000000,0.000000)
H1 Negated = (-1.000000,-1.000000,0.000000,0.000000)

PART2 Hcoords Test #6 (Hcoord Negated) PART2

H1 = (-1.000000,-1.000000,0.000000,0.000000)
H1 Negated = (1.000000,1.000000,0.000000,0.000000)

********** TestVector2Ds **********

|###########################################|
Vector Test #1 (Default Constructor)
X = <0.000000,0.000000,0.000000,0.000000>

|###########################################|
PART1 Vector Test #1 (Non-Default Constructor) PART1
X(1,1)
X = <1.000000,1.000000,0.000000,0.000000>

Y(1,1,1)
Y = <1.000000,1.000000,0.000000,0.000000>

Z(1,1,1,1)
Z = <1.000000,1.000000,0.000000,0.000000>

PART2 Vector Test #1 (Non-Default Constructor (HCOORDS)) PART2

X(1,1)
X = <1.000000,1.000000,0.000000,0.000000>

Y(1,1,1)
Y = <1.000000,1.000000,0.000000,0.000000>

Z(1,1,1,1)
Z = <1.000000,1.000000,0.000000,0.000000>

|###########################################|
Vector Test #1 (Zero Vector)

X = <1.000000,1.000000,0.000000,0.000000>
Zero X = <0.000000,0.000000,0.000000,0.000000>

Y = <2.000000,2.000000,0.000000,0.000000>
Zero Y = <0.000000,0.000000,0.000000,0.000000>

Z = <3.000000,3.000000,0.000000,0.000000>
Zero Z = <0.000000,0.000000,0.000000,0.000000>

|###########################################|
Vector Test #1 (Normalize Vector)

X = <2.000000,1.000000,0.000000,0.000000>
Normalized X = <0.894427,0.447214,0.000000,0.000000>

Y = <2.000000,-1.000000,0.000000,0.000000>
Normalized Y = <0.894427,-0.447214,0.000000,0.000000>

Z = <-2.000000,-1.000000,0.000000,0.000000>
Normalized Z = <-0.894427,-0.447214,0.000000,0.000000>

W = <-2.000000,1.000000,0.000000,0.000000>
Normalized W = <-0.894427,0.447214,0.000000,0.000000>


|###########################################|
Vector Test #1 (Set Vector)

X = <0.000000,0.000000,0.000000,0.000000>
Set X = <1.000000,1.000000,0.000000,0.000000>

Y = <0.000000,0.000000,0.000000,0.000000>
Set Y = <2.000000,2.000000,0.000000,0.000000>

Z = <0.000000,0.000000,0.000000,0.000000>
Set Z = <3.000000,3.000000,0.000000,0.000000>

W = <0.000000,0.000000,0.000000,0.000000>
Set W = <4.000000,4.000000,0.000000,0.000000>


|###########################################|
PART1 Vector Test #1 (Vector Scale(float)) PART1

X = <0.000000,0.000000,0.000000,0.000000>
Scale X = <0.000000,0.000000,0.000000,0.000000>

Y = <0.000000,0.000000,0.000000,0.000000>
Scale Y = <0.000000,0.000000,0.000000,0.000000>

Z = <0.000000,0.000000,0.000000,0.000000>
Scale Z = <0.000000,0.000000,0.000000,0.000000>

W = <0.000000,0.000000,0.000000,0.000000>
Scale W = <0.000000,0.000000,0.000000,0.000000>

PART2 Vector Test #1 (Vector Scale(float)) PART2

X = <1.000000,1.000000,0.000000,0.000000>
Scale X = <2.000000,2.000000,0.000000,0.000000>

Y = <2.000000,2.000000,0.000000,0.000000>
Scale Y = <6.000000,6.000000,0.000000,0.000000>

Z = <3.000000,3.000000,0.000000,0.000000>
Scale Z = <12.000000,12.000000,0.000000,0.000000>

W = <4.000000,4.000000,0.000000,0.000000>
Scale W = <20.000000,20.000000,0.000000,0.000000>


|###########################################|
PART1 Vector Test #1 (Vector ScaleAdd) PART1

X = <0.000000,0.000000,0.000000,0.000000>
Scale X = <0.000000,0.000000,0.000000,0.000000>

Y = <0.000000,0.000000,0.000000,0.000000>
Scale Y = <0.000000,0.000000,0.000000,0.000000>

Z = <0.000000,0.000000,0.000000,0.000000>
Scale Z = <0.000000,0.000000,0.000000,0.000000>

W = <0.000000,0.000000,0.000000,0.000000>
Scale W = <0.000000,0.000000,0.000000,0.000000>

PART2 Vector Test #1 (Vector ScaleAdd) PART2

X = <1.000000,1.000000,0.000000,0.000000>
Scale X = <4.000000,4.000000,0.000000,0.000000>

Y = <2.000000,2.000000,0.000000,0.000000>
Scale Y = <8.000000,8.000000,0.000000,0.000000>

Z = <3.000000,3.000000,0.000000,0.000000>
Scale Z = <12.000000,12.000000,0.000000,0.000000>

W = <4.000000,4.000000,0.000000,0.000000>
Scale W = <16.000000,16.000000,0.000000,0.000000>

PART3 Vector Test #1 (Vector ScaleAdd) PART3

X = <1.000000,1.000000,0.000000,0.000000>
Scale X = <-1.000000,0.000000,0.000000,0.000000>

Y = <2.000000,2.000000,0.000000,0.000000>
Scale Y = <1.000000,6.000000,0.000000,0.000000>

Z = <3.000000,3.000000,0.000000,0.000000>
Scale Z = <9.000000,4.000000,0.000000,0.000000>

W = <4.000000,4.000000,0.000000,0.000000>
Scale W = <11.000000,10.000000,0.000000,0.000000>


|###########################################|
PART1 Vector Test #1 (Vector ScaleSub) PART1

X = <0.000000,0.000000,0.000000,0.000000>
Scale X = <0.000000,0.000000,0.000000,0.000000>

Y = <0.000000,0.000000,0.000000,0.000000>
Scale Y = <0.000000,0.000000,0.000000,0.000000>

Z = <0.000000,0.000000,0.000000,0.000000>
Scale Z = <0.000000,0.000000,0.000000,0.000000>

W = <0.000000,0.000000,0.000000,0.000000>
Scale W = <0.000000,0.000000,0.000000,0.000000>

PART2 Vector Test #1 (Vector ScaleSub) PART2

X = <1.000000,1.000000,0.000000,0.000000>
Scale X = <0.000000,0.000000,0.000000,0.000000>

Y = <2.000000,2.000000,0.000000,0.000000>
Scale Y = <0.000000,0.000000,0.000000,0.000000>

Z = <3.000000,3.000000,0.000000,0.000000>
Scale Z = <0.000000,0.000000,0.000000,0.000000>

W = <4.000000,4.000000,0.000000,0.000000>
Scale W = <0.000000,0.000000,0.000000,0.000000>

PART3 Vector Test #1 (Vector ScaleSub) PART3

X = <1.000000,1.000000,0.000000,0.000000>
Scale X = <5.000000,4.000000,0.000000,0.000000>

Y = <2.000000,2.000000,0.000000,0.000000>
Scale Y = <7.000000,2.000000,0.000000,0.000000>

Z = <3.000000,3.000000,0.000000,0.000000>
Scale Z = <3.000000,8.000000,0.000000,0.000000>

W = <4.000000,4.000000,0.000000,0.000000>
Scale W = <5.000000,6.000000,0.000000,0.000000>


|###########################################|
PART1 Vector Test #1 (Vector Length) PART1

X = <0.000000,0.000000,0.000000,0.000000>
Lenght of X = 0.000000

Y = <0.000000,0.000000,0.000000,0.000000>
Length of Y = 0.000000

PART2 Vector Test #1 (Vector Length) PART2

X = <2.000000,3.000000,0.000000,0.000000>
Lenght of X = 3.605551

Y = <4.000000,1.000000,0.000000,0.000000>
Lenght Y = 4.123106

PART3 Vector Test #3 (Vector Length) PART3

X = <-2.000000,-3.000000,0.000000,0.000000>
Lenght of X = 3.605551

Y = <-4.000000,1.000000,0.000000,0.000000>
Lenght Y = 4.123106

Z = <3.000000,-1.000000,0.000000,0.000000>
Lenght Z = 3.162278


|###########################################|
PART1 Vector Test #1 (Vector SquareLength) PART1

X = <0.000000,0.000000,0.000000,0.000000>
SquareLength of X = 0.000000

Y = <0.000000,0.000000,0.000000,0.000000>
SquareLength of Y = 0.000000

PART2 Vector Test #1 (Vector SquareLength) PART2

X = <2.000000,3.000000,0.000000,0.000000>
SquareLength of X = 13.000000

Y = <4.000000,1.000000,0.000000,0.000000>
SquareLength Y = 17.000000

PART3 Vector Test #1 (Vector SquareLength) PART3

X = <-2.000000,-3.000000,0.000000,0.000000>
SquareLength of X = 13.000000

Y = <-4.000000,1.000000,0.000000,0.000000>
SquareLength Y = 17.000000

Z = <3.000000,-1.000000,0.000000,0.000000>
SquareLength Z = 10.000000


|###########################################|
PART1 Vector Test #1 (Vector Distance) PART1

X = <0.000000,0.000000,0.000000,0.000000>
Distance of X to X = 0.000000

Y = <0.000000,0.000000,0.000000,0.000000>
Distance of Y to Y = 0.000000

PART2 Vector Test #1 (Vector Distance) PART2

X = <-2.000000,-3.000000,0.000000,0.000000>
Y = <-4.000000,1.000000,0.000000,0.000000>
Distance from X to Y = 4.472136

X = <-2.000000,-3.000000,0.000000,0.000000>
Z = <3.000000,-1.000000,0.000000,0.000000>
Distance from X to Z = 5.385165

Y = <-4.000000,1.000000,0.000000,0.000000>
X = <-2.000000,-3.000000,0.000000,0.000000>
Distance from Y to X = 4.472136

Y = <-4.000000,1.000000,0.000000,0.000000>
Z = <3.000000,-1.000000,0.000000,0.000000>
Distance from Y to Z = 7.280110

Z = <3.000000,-1.000000,0.000000,0.000000>
Y = <-4.000000,1.000000,0.000000,0.000000>
Distance from Z to Y = 7.280110

Z = <3.000000,-1.000000,0.000000,0.000000>
X = <-2.000000,-3.000000,0.000000,0.000000>
Distance from Z to X = 5.385165


|###########################################|
PART1 Vector Test #1 (Vector SquareDistance) PART1

X = <0.000000,0.000000,0.000000,0.000000>
SquareDistance of X to X = 0.000000

Y = <0.000000,0.000000,0.000000,0.000000>
SquareDistance of Y to Y = 0.000000

PART3 Vector Test #1 (Vector SquareDistance) PART3

X = <-2.000000,-3.000000,0.000000,0.000000>
Y = <-4.000000,1.000000,0.000000,0.000000>
SquareDistance from X to Y = 20.000000

X = <-2.000000,-3.000000,0.000000,0.000000>
Z = <3.000000,-1.000000,0.000000,0.000000>
SquareDistance from X to Z = 29.000000

Y = <-4.000000,1.000000,0.000000,0.000000>
X = <-2.000000,-3.000000,0.000000,0.000000>
SquareDistance from Y to X = 20.000000

Y = <-4.000000,1.000000,0.000000,0.000000>
Z = <3.000000,-1.000000,0.000000,0.000000>
SquareDistance from Y to Z = 53.000000

Z = <3.000000,-1.000000,0.000000,0.000000>
Y = <-4.000000,1.000000,0.000000,0.000000>
SquareDistance from Z to Y = 53.000000

Z = <3.000000,-1.000000,0.000000,0.000000>
X = <-2.000000,-3.000000,0.000000,0.000000>
SquareDistance from Z to X = 29.000000


|###########################################|
PART1 Vector Test #1 (Vector DotProduct) PART1

X = <0.000000,0.000000,0.000000,0.000000>
X Dot X = 0.000000

Y = <0.000000,0.000000,0.000000,0.000000>
Y Dot Y = 0.000000

PART2 Vector Test #1 (Vector DotProduct) PART2

X = <-1.000000,-1.000000,0.000000,0.000000>
Y = <2.000000,2.000000,0.000000,0.000000>
X Dot Y = -4.000000

X = <-1.000000,-1.000000,0.000000,0.000000>
Z = <3.000000,-3.000000,0.000000,0.000000>
X Dot Z = 0.000000

Y = <2.000000,2.000000,0.000000,0.000000>
X = <-1.000000,-1.000000,0.000000,0.000000>
Y Dot to X = -4.000000

Y = <2.000000,2.000000,0.000000,0.000000>
Z = <3.000000,-3.000000,0.000000,0.000000>
Y Dot Z = 0.000000

W = <-4.000000,4.000000,0.000000,0.000000>
Z = <3.000000,-3.000000,0.000000,0.000000>
W Dot Z = -24.000000

Z = <3.000000,-3.000000,0.000000,0.000000>
W = <-4.000000,4.000000,0.000000,0.000000>
Z Dot W = -24.000000


|###########################################|
PART1 Vector Test #1 (Vector Gettors) PART1

X = <0.000000,0.000000,0.000000,0.000000>
Vector2D x value = 0.000000

Vector2D y value = 0.000000

PART2 Vector Test #1 (Vector Gettors) PART2

Y = <3.000000,5.000000,0.000000,0.000000>
Vector2D x value = 3.000000

Vector2D y value = 5.000000


|###########################################|
PART1 Vector Test #1 (Vector Negating) PART1

X = <0.000000,0.000000,0.000000,0.000000>
Negated X = <-0.000000,-0.000000,0.000000,0.000000>

PART2 Vector Test #1 (Vector Negating) PART2

Y = <3.000000,5.000000,0.000000,0.000000>
Negated Y = <-3.000000,-5.000000,0.000000,0.000000>

W = <-3.000000,-5.000000,0.000000,0.000000>
Negated W = <3.000000,5.000000,0.000000,0.000000>

Z = <-3.000000,5.000000,0.000000,0.000000>
Negated W = <3.000000,-5.000000,0.000000,0.000000>

A = <3.000000,-5.000000,0.000000,0.000000>
Negated W = <-3.000000,5.000000,0.000000,0.000000>


|###########################################|
PART1 Vector Test #1 (Vector - Vector) PART1

A = <0.000000,0.000000,0.000000,0.000000>
B = <0.000000,0.000000,0.000000,0.000000>
A - B = <0.000000,0.000000,0.000000,0.000000>

B - A = <0.000000,0.000000,0.000000,0.000000>

A - A = <0.000000,0.000000,0.000000,0.000000>

B - B = <0.000000,0.000000,0.000000,0.000000>

PART2 Vector Test #1 (Vector - Vector) PART2

X = <2.000000,1.000000,0.000000,0.000000>
Y = <3.000000,2.000000,0.000000,0.000000>
Z = <-5.000000,-5.000000,0.000000,0.000000>
W = <-2.000000,3.000000,0.000000,0.000000>

X - Y = <-1.000000,-1.000000,0.000000,0.000000>

Y - X = <1.000000,1.000000,0.000000,0.000000>

Z - W = <-3.000000,-8.000000,0.000000,0.000000>

W - Z = <3.000000,8.000000,0.000000,0.000000>

W - X = <-4.000000,2.000000,0.000000,0.000000>

W - Y = <-5.000000,1.000000,0.000000,0.000000>

Z - X = <-7.000000,-6.000000,0.000000,0.000000>

Y - W = <5.000000,-1.000000,0.000000,0.000000>


|###########################################|
PART1 Vector Test #1 (Vector + Vector) PART1

A = <0.000000,0.000000,0.000000,0.000000>
B = <0.000000,0.000000,0.000000,0.000000>
A + B = <0.000000,0.000000,0.000000,0.000000>

B + A = <0.000000,0.000000,0.000000,0.000000>

A + A = <0.000000,0.000000,0.000000,0.000000>

B + B = <0.000000,0.000000,0.000000,0.000000>

PART2 Vector Test #1 (Vector + Vector) PART2

X = <2.000000,1.000000,0.000000,0.000000>
Y = <3.000000,2.000000,0.000000,0.000000>
Z = <-5.000000,-5.000000,0.000000,0.000000>
W = <-2.000000,3.000000,0.000000,0.000000>

X + Y = <5.000000,3.000000,0.000000,0.000000>

Y + X = <5.000000,3.000000,0.000000,0.000000>

Z + W = <-7.000000,-2.000000,0.000000,0.000000>

W + Z = <-7.000000,-2.000000,0.000000,0.000000>

W + X = <0.000000,4.000000,0.000000,0.000000>

W + Y = <1.000000,5.000000,0.000000,0.000000>

Z + X = <-3.000000,-4.000000,0.000000,0.000000>

Y + W = <1.000000,5.000000,0.000000,0.000000>


|###########################################|
PART1 Vector Test #1 (Vector == Vector?) PART1

X = <1.000000,1.000000,0.000000,0.000000>
Y = <1.000000,1.000000,0.000000,0.000000>
Z = <2.000000,2.000000,0.000000,0.000000>
Does X == Y? YES
Does X == Z? NO

|###########################################|
PART1 Vector Test #1 (Rotating a Vector by Degrees) PART1

X = <2.000000,3.000000,0.000000,0.000000>
Y = <-2.000000,1.000000,0.000000,0.000000>
Z = <3.000000,-2.000000,0.000000,0.000000>
X rotated 90 deg = <-3.000000,2.000000,0.000000,0.000000>
X rotated 45 deg = <-0.707107,3.535534,0.000000,0.000000>
X rotated 25 deg = <0.544761,3.564160,0.000000,0.000000>

Y rotated 90 deg = <-1.000000,-2.000000,0.000000,0.000000>
Y rotated 45 deg = <-2.121320,-0.707107,0.000000,0.000000>
Y rotated 25 deg = <-2.235234,0.061071,0.000000,0.000000>

Z rotated 90 deg = <2.000000,3.000000,0.000000,0.000000>
Z rotated 45 deg = <3.535534,0.707107,0.000000,0.000000>
Z rotated 25 deg = <3.564160,-0.544761,0.000000,0.000000>

PART2 Vector Test #1 (Rotating a Vector by Degrees) PART2

X rotated -90 deg = <3.000000,-2.000000,0.000000,0.000000>
X rotated -45 deg = <3.535534,0.707107,0.000000,0.000000>
X rotated -25 deg = <3.080470,1.873687,0.000000,0.000000>

Y rotated -90 deg = <1.000000,2.000000,0.000000,0.000000>
Y rotated -45 deg = <-0.707107,2.121320,0.000000,0.000000>
Y rotated -25 deg = <-1.389997,1.751544,0.000000,0.000000>

Z rotated -90 deg = <-2.000000,-3.000000,0.000000,0.000000>
Z rotated -45 deg = <0.707107,-3.535534,0.000000,0.000000>
Z rotated -25 deg = <1.873687,-3.080470,0.000000,0.000000>


|###########################################|
PART1 Vector Test #1 (Vector * scalar) PART1

X = <1.000000,1.000000,0.000000,0.000000>
Y = <2.000000,2.000000,0.000000,0.000000>
Z = <3.000000,3.000000,0.000000,0.000000>
W = <4.000000,4.000000,0.000000,0.000000>

X * r = <2.000000,2.000000,0.000000,0.000000>

Y * r = <4.000000,4.000000,0.000000,0.000000>

Z * r = <6.000000,6.000000,0.000000,0.000000>

W * r = <8.000000,8.000000,0.000000,0.000000>


|###########################################|
PART1 Vector Test #1 (scalar * Vector) PART1

X = <1.000000,1.000000,0.000000,0.000000>
Y = <2.000000,2.000000,0.000000,0.000000>
Z = <3.000000,3.000000,0.000000,0.000000>
W = <4.000000,4.000000,0.000000,0.000000>

r * X = (2.000000,2.000000,0.000000,0.000000)

r * Y = (4.000000,4.000000,0.000000,0.000000)

r * Z = (6.000000,6.000000,0.000000,0.000000)

r * W = (8.000000,8.000000,0.000000,0.000000)


|###########################################|
PART1 Vector Test #1 (Vector / float) PART1

X = <1.000000,1.000000,0.000000,0.000000>
Y = <2.000000,2.000000,0.000000,0.000000>
Z = <3.000000,3.000000,0.000000,0.000000>
W = <4.000000,4.000000,0.000000,0.000000>

X / r = <0.500000,0.500000,0.000000,0.000000>

Y / r = <1.000000,1.000000,0.000000,0.000000>

Z / r = <1.500000,1.500000,0.000000,0.000000>

W / r = <2.000000,2.000000,0.000000,0.000000>


|###########################################|
PART1 Vector Test #1 (Vector += Vector) PART1

X = <1.000000,1.000000,0.000000,0.000000>
Y = <2.000000,2.000000,0.000000,0.000000>
Z = <3.000000,3.000000,0.000000,0.000000>
W = <4.000000,4.000000,0.000000,0.000000>

X += X = <2.000000,2.000000,0.000000,0.000000>

Y += Y = <4.000000,4.000000,0.000000,0.000000>

Z += Z = <6.000000,6.000000,0.000000,0.000000>

W += W = <8.000000,8.000000,0.000000,0.000000>

X = <2.000000,2.000000,0.000000,0.000000>
Y = <4.000000,4.000000,0.000000,0.000000>
Z = <6.000000,6.000000,0.000000,0.000000>
W = <8.000000,8.000000,0.000000,0.000000>


|###########################################|
PART1 Vector Test #1 (Vector += float) PART1

X = <1.000000,1.000000,0.000000,0.000000>
Y = <2.000000,2.000000,0.000000,0.000000>
Z = <3.000000,3.000000,0.000000,0.000000>
W = <4.000000,4.000000,0.000000,0.000000>

X += r = <3.000000,3.000000,0.000000,0.000000>

Y += r = <4.000000,4.000000,0.000000,0.000000>

Z += r = <5.000000,5.000000,0.000000,0.000000>

W += r = <6.000000,6.000000,0.000000,0.000000>

X = <3.000000,3.000000,0.000000,0.000000>
Y = <4.000000,4.000000,0.000000,0.000000>
Z = <5.000000,5.000000,0.000000,0.000000>
W = <6.000000,6.000000,0.000000,0.000000>


|###########################################|
PART1 Vector Test #1 (Vector -= Vector) PART1

X = <1.000000,1.000000,0.000000,0.000000>
Y = <2.000000,2.000000,0.000000,0.000000>
Z = <3.000000,3.000000,0.000000,0.000000>
W = <4.000000,4.000000,0.000000,0.000000>

X -= X = <0.000000,0.000000,0.000000,0.000000>

Y -= Y = <0.000000,0.000000,0.000000,0.000000>

Z -= Z = <0.000000,0.000000,0.000000,0.000000>

W -= W = <0.000000,0.000000,0.000000,0.000000>

X = <0.000000,0.000000,0.000000,0.000000>
Y = <0.000000,0.000000,0.000000,0.000000>
Z = <0.000000,0.000000,0.000000,0.000000>
W = <0.000000,0.000000,0.000000,0.000000>


|###########################################|
PART1 Vector Test #1 (Vector -= float) PART1

X = <1.000000,1.000000,0.000000,0.000000>
Y = <2.000000,2.000000,0.000000,0.000000>
Z = <3.000000,3.000000,0.000000,0.000000>
W = <4.000000,4.000000,0.000000,0.000000>

X -= r = <-1.000000,-1.000000,0.000000,0.000000>

Y -= r = <0.000000,0.000000,0.000000,0.000000>

Z -= r = <1.000000,1.000000,0.000000,0.000000>

W -= r = <2.000000,2.000000,0.000000,0.000000>

X = <-1.000000,-1.000000,0.000000,0.000000>
Y = <0.000000,0.000000,0.000000,0.000000>
Z = <1.000000,1.000000,0.000000,0.000000>
W = <2.000000,2.000000,0.000000,0.000000>


|###########################################|
PART1 Vector Test #1 (Vector *= float) PART1

X = <1.000000,1.000000,0.000000,0.000000>
Y = <2.000000,2.000000,0.000000,0.000000>
Z = <3.000000,3.000000,0.000000,0.000000>
W = <4.000000,4.000000,0.000000,0.000000>

X *= r = <2.000000,2.000000,0.000000,0.000000>

Y *= r = <4.000000,4.000000,0.000000,0.000000>

Z *= r = <6.000000,6.000000,0.000000,0.000000>

W *= r = <8.000000,8.000000,0.000000,0.000000>

X = <2.000000,2.000000,0.000000,0.000000>
Y = <4.000000,4.000000,0.000000,0.000000>
Z = <6.000000,6.000000,0.000000,0.000000>
W = <8.000000,8.000000,0.000000,0.000000>


|###########################################|
PART1 Vector Test #1 (Vector /= float) PART1

X = <1.000000,1.000000,0.000000,0.000000>
Y = <2.000000,2.000000,0.000000,0.000000>
Z = <3.000000,3.000000,0.000000,0.000000>
W = <4.000000,4.000000,0.000000,0.000000>

X /= r = <0.500000,0.500000,0.000000,0.000000>

Y /= r = <1.000000,1.000000,0.000000,0.000000>

Z /= r = <1.500000,1.500000,0.000000,0.000000>

W /= r = <2.000000,2.000000,0.000000,0.000000>

X = <0.500000,0.500000,0.000000,0.000000>
Y = <1.000000,1.000000,0.000000,0.000000>
Z = <1.500000,1.500000,0.000000,0.000000>
W = <2.000000,2.000000,0.000000,0.000000>


|###########################################|
PART1 Vector Test #1 (Vector %= Degrees) PART1

X = <1.000000,1.000000,0.000000,0.000000>
Y = <2.000000,2.000000,0.000000,0.000000>
Z = <3.000000,3.000000,0.000000,0.000000>
X rotated 90 deg = <-1.000000,1.000000,0.000000,0.000000>
Y rotated 90 deg = <-2.000000,2.000000,0.000000,0.000000>
Z rotated 90 deg = <-3.000000,3.000000,0.000000,0.000000>
PART2 Vector Test #1 (Rotating a Vector by Degrees) PART2

X rotated -90 deg = <1.000000,1.000000,0.000000,0.000000>
Y rotated -90 deg = <2.000000,2.000000,0.000000,0.000000>
Z rotated -90 deg = <3.000000,3.000000,0.000000,0.000000>

********** TestPoint2Ds **********

|###########################################|
PART1 Point2D Test #1 (Default Constructor) PART1
X = (0.000000,0.000000,0.000000,1.000000)

PART2 Point2D Test #1 (Non-Default Constructor) PART2
X = (1.000000,1.000000,0.000000,1.000000)

|###########################################|
PART1 Point2D Test #1 (Point(Hcoords) Constructor) PART1
X = (3.000000,2.000000,0.000000,0.000000)

|###########################################|
PART1 Point2D Test #1 (Point(Point) constructor) PART1
X = (3.000000,2.000000,0.000000,1.000000)

|###########################################|
PART1 Point2D Test #1 (Gettors) PART1
X = (3.000000,2.000000,0.000000,1.000000)
X Gettor Got = 3.000000
Y Gettor Got = 2.000000


|###########################################|
PART1 Point2D Test #1 (Gettors) PART1
X = (3.000000,2.000000,0.000000,1.000000)
X[0] Got = 3.000000
X[1] Got = 2.000000


|###########################################|
PART1 Point2D Test #1 (Point = Point) PART1
X = (3.000000,2.000000,0.000000,1.000000)
Y = (1.000000,1.000000,0.000000,1.000000)
Y = X
Y now = (3.000000,2.000000,0.000000,1.000000)


|###########################################|
PART1 Point2D Test #1 (Point += Point) PART1
X = (3.000000,2.000000,0.000000,1.000000)
Y = (1.000000,1.000000,0.000000,1.000000)
Y += X
Y now = (4.000000,3.000000,0.000000,1.000000)


|###########################################|
PART1 Point2D Test #1 (Point -= Point) PART1
X = (3.000000,2.000000,0.000000,1.000000)
Y = (1.000000,1.000000,0.000000,1.000000)
Y -= X
Y now = (-2.000000,-1.000000,0.000000,1.000000)


|###########################################|
PART1 Point2D Test #1 (Point *= float) PART1
X = (3.000000,2.000000,0.000000,1.000000)
temp = 2.000000
X *= temp
X now = (6.000000,4.000000,0.000000,1.000000)


|###########################################|
PART1 Point2D Test #1 (Length of Point) PART1
X = (3.000000,2.000000,0.000000,1.000000)
length of X = 3.605551


|###########################################|
PART1 Point2D Test #1 (SquareLength) PART1
X = (3.000000,2.000000,0.000000,1.000000)
length2 of X = 13.000000


|###########################################|
Point2D Test #1 (BarScale)

X = (1.000000,1.000000,0.000000,1.000000)
X.BarScale = (2.000000,2.000000,0.000000,2.000000)

Y = (2.000000,2.000000,0.000000,1.000000)
Y.BarScale = (4.000000,4.000000,0.000000,2.000000)


|###########################################|
Point2D Test #1 (Point + Point)

X = (1.000000,1.000000,0.000000,1.000000)
Z = X + Y
Z = (3.000000,3.000000,0.000000,1.000000)

X = (1.000000,1.000000,0.000000,1.000000)
X = Z + Y
X = (5.000000,5.000000,0.000000,1.000000)


|###########################################|
Point2D Test #1 (-Point)

X = (1.000000,1.000000,0.000000,1.000000)
-X = (-1.000000,-1.000000,0.000000,1.000000)

Y = (2.000000,2.000000,0.000000,1.000000)
-Y = (-2.000000,-2.000000,0.000000,1.000000)

Z = (3.000000,3.000000,0.000000,1.000000)
-Z = (-3.000000,-3.000000,0.000000,1.000000)


|###########################################|
PART1 Point2D Test #1 (Point * r) PART1
X = (3.000000,2.000000,0.000000,1.000000)
r = 2.000000
Y = X * r = 
Y = (6.000000,4.000000,0.000000,1.000000)


|###########################################|
Point2D Test #1 (Point - Point = Vector)

X = (1.000000,1.000000,0.000000,1.000000)
Y = (2.000000,2.000000,0.000000,1.000000)
W = X - Y
<-1.000000,-1.000000,0.000000,0.000000>

Y = (2.000000,2.000000,0.000000,1.000000)
Z = (3.000000,3.000000,0.000000,1.000000)
W = Y - Z
<-1.000000,-1.000000,0.000000,0.000000>

Z = (3.000000,3.000000,0.000000,1.000000)
X = (1.000000,1.000000,0.000000,1.000000)
W = Z - X
<2.000000,2.000000,0.000000,0.000000>


|###########################################|
Point2D Test #1 (Point * Point = float)

X = (1.000000,1.000000,0.000000,1.000000)
temp = X * X = 2.000000

Y = (2.000000,2.000000,0.000000,1.000000)
temp = Y * Y = 8.000000

Z = (3.000000,3.000000,0.000000,1.000000)
temp = Z * Z = 18.000000


|###########################################|
PART1 Point2D Test #1 (Point == Point?) PART1

X = (1.000000,1.000000,0.000000,1.000000)
Y = (1.000000,1.000000,0.000000,1.000000)
Z = (2.000000,2.000000,0.000000,1.000000)
Does X == Y? YES
Does X == Z? NO

********** TestAffines **********

|###########################################|
PART1 Affine Test #1 (Default Constructor) PART1

X = 
[0.000000,0.000000,0.000000]
[0.000000,0.000000,0.000000]
[0.000000,0.000000,1.000000]



|###########################################|
PART1 Affine Test #1 (Non-Default Constructor) PART1

X = 
[1.000000,2.000000,3.000000]
[1.000000,2.000000,3.000000]
[0.000000,0.000000,1.000000]


Y = 
[1.000000,2.000000,3.000000]
[1.000000,2.000000,3.000000]
[0.000000,0.000000,1.000000]



|###########################################|
PART1 Affine Test #1 (Affine Inverse) PART1

X = 
[1.000000,2.000000,3.000000]
[1.000000,2.000000,3.000000]
[0.000000,0.000000,1.000000]


X Inverse 
[1.000000,2.000000,3.000000]
[1.000000,2.000000,3.000000]
[0.000000,0.000000,1.000000]


Y = 
[2.000000,3.000000,6.000000]
[1.000000,4.000000,3.000000]
[0.000000,0.000000,1.000000]


Y Inverse 
[0.800000,-0.600000,-3.000000]
[-0.200000,0.400000,0.000000]
[0.000000,0.000000,1.000000]



|###########################################|
PART1 Affine Test #1 (Affine + Affine) PART1

X = 
[1.000000,2.000000,3.000000]
[1.000000,2.000000,3.000000]
[0.000000,0.000000,1.000000]

Y = 
[2.000000,3.000000,6.000000]
[1.000000,4.000000,3.000000]
[0.000000,0.000000,1.000000]


X + Y 
[3.000000,5.000000,9.000000]
[2.000000,6.000000,6.000000]
[0.000000,0.000000,1.000000]



|###########################################|
PART1 Affine Test #1 (Affine * Affine) PART1

X = 
[1.000000,2.000000,3.000000]
[1.000000,2.000000,3.000000]
[0.000000,0.000000,1.000000]

Y = 
[2.000000,3.000000,6.000000]
[1.000000,4.000000,3.000000]
[0.000000,0.000000,1.000000]


X * Y 
[4.000000,11.000000,15.000000]
[4.000000,11.000000,15.000000]
[0.000000,0.000000,1.000000]



|###########################################|
PART1 Affine Test #1 (Hcoords = Affine * Hcoords) PART1

X = 
[1.000000,2.000000,3.000000]
[1.000000,2.000000,3.000000]
[0.000000,0.000000,1.000000]

Y = (3.000000,3.000000,0.000000,0.000000)

X * Y 
(9.000000,9.000000,0.000000,0.000000)


********** TestMatrix4s **********

|###########################################|
PART1 Matrix4 Test #1 (Default Constructor) PART1

X = 
[0.000000,0.000000,0.000000,0.000000]
[0.000000,0.000000,0.000000,0.000000]
[0.000000,0.000000,0.000000,0.000000]
[0.000000,0.000000,0.000000,1.000000]



|###########################################|
PART1 Matrix4 Test #1 (Default Constructor) PART1

X = 
[1.000000,2.000000,3.000000,3.000000]
[1.000000,2.000000,3.000000,3.000000]
[0.000000,0.000000,0.000000,0.000000]
[0.000000,0.000000,0.000000,1.000000]



|###########################################|
PART1 Matrix4 Test #1 (Matrix4 + Matrix4) PART1

X = 
[1.000000,2.000000,3.000000,4.000000]
[1.000000,2.000000,3.000000,4.000000]
[0.000000,0.000000,0.000000,0.000000]
[0.000000,0.000000,0.000000,1.000000]

Y = 
[2.000000,3.000000,4.000000,5.000000]
[2.000000,3.000000,4.000000,5.000000]
[0.000000,0.000000,0.000000,0.000000]
[0.000000,0.000000,0.000000,1.000000]


X + Y = 
[3.000000,5.000000,7.000000,9.000000]
[3.000000,5.000000,7.000000,9.000000]
[0.000000,0.000000,0.000000,0.000000]
[0.000000,0.000000,0.000000,1.000000]


X = 
[1.000000,2.000000,3.000000,4.000000]
[1.000000,2.000000,3.000000,4.000000]
[0.000000,0.000000,0.000000,0.000000]
[0.000000,0.000000,0.000000,1.000000]

Y = 
[2.000000,3.000000,4.000000,5.000000]
[2.000000,3.000000,4.000000,5.000000]
[0.000000,0.000000,0.000000,0.000000]
[0.000000,0.000000,0.000000,1.000000]



************** TestMath **************

|###########################################|
PART1 TestMath Test #1 (Vector dot Vector) PART1

X = <1.000000,1.000000,0.000000,0.000000>
Y = <2.000000,2.000000,0.000000,0.000000>

dot product of X and Y = 4.000000


|###########################################|
PART1 TestMath Test #1 () PART1

X = <1.000000,1.000000,0.000000,0.000000>
Y = <2.000000,2.000000,0.000000,0.000000>

length of X = 1.414214


|###########################################|
PART1 TestMath Test #1 (Rototation by Radians) PART1

Rotation Affine = 
[-0.999999,-0.001593,0.000000]
[0.001593,-0.999999,0.000000]
[0.000000,0.000000,1.000000]


|###########################################|
PART1 TestMath Test #1 (Affine Translation) PART1

Y = <3.000000,3.000000,0.000000,0.000000>

Translation Affine of Y = 
[1.000000,0.000000,3.000000]
[0.000000,1.000000,3.000000]
[0.000000,0.000000,1.000000]

|###########################################|
PART1 TestMath Test #1 (Affine Scale) PART1

Scale Affine of temp = 
[2.000000,0.000000,0.000000]
[0.000000,2.000000,0.000000]
[0.000000,0.000000,1.000000]

|###########################################|
PART1 TestMath Test #1 (Affine Scale(x,y)) PART1

Scale Affine of temp = 
[2.000000,0.000000,0.000000]
[0.000000,5.000000,0.000000]
[0.000000,0.000000,1.000000]

|###########################################|
PART1 TestMath Test #1 (Point = r * Point) PART1

X = (1.000000,1.000000,0.000000,1.000000)
temp1 * X = (5.000000,5.000000,0.000000,1.000000)


|###########################################|
PART1 TestMath Test #1 (Point Normal) PART1

X = (3.000000,1.000000,0.000000,1.000000)
Normal of X = (0.948683,0.316228,0.000000,1.000000)





