15
9
1 1 1 1 1 1 1 1 1 1 1 1 1 1 1
1 1 0 0 0 0 0 0 0 0 0 0 0 1 1
1 0 0 0 0 0 0 0 0 0 0 0 0 0 1
1 0 0 4 1 4 1 4 1 4 1 4 0 0 1
1 0 0 1 2 3 3 3 3 3 2 1 0 0 1
1 0 0 4 1 4 1 4 1 4 1 4 0 0 1
1 0 0 0 0 0 0 0 0 0 0 0 0 0 1
1 1 0 0 0 0 0 0 0 0 0 0 0 1 1
1 1 1 1 1 1 1 1 1 1 1 1 1 1 1