15
9
1 1 1 1 1 1 1 1 1 1 1 1 1 1 1
1 1 0 0 1 0 0 0 0 0 0 0 2 1 1
1 0 0 4 0 4 0 0 0 4 0 0 0 0 1
1 0 4 3 4 3 4 0 4 3 4 0 0 0 1
1 0 0 4 3 4 0 1 0 4 0 1 0 0 1
1 0 0 0 4 0 1 0 4 3 4 0 0 0 1
1 0 0 0 0 0 0 0 0 4 3 4 0 0 1
1 1 2 0 1 0 0 0 0 0 1 0 0 1 1
1 1 1 1 1 1 1 1 1 1 1 1 1 1 1